# 
#          w(z) = -1 - A*exp(-z)*(z**n- z - C)
#             * * * New lims for params * * *
#         
#         LCDM LIMIT A = 0, n = C = 0
#             
#         Results are displayed in the following order: 
#         w(z=0), chi2min, chi2reduced,
#         w_params, h, omegabh2, omegach2, OmegaM,
#         aic, bic, m_params
# 
#         bounds = [(A),       (n),    (C),     (h), (omegabh2_fixed), (omegach2)]
#         bounds = [(-50, 50), (0, 1), (-5, 5), (0.5, 0.8), (0.005, 0.045), (0.001, 0.2)]
# 
#         
-1.000000000000000000e+00
5.859164604952061381e+02
9.897237508364968850e-01
0.000000000000000000e+00
1.000000000000000000e+00
1.000000000000000000e+00
6.950421802071381494e-01
2.224328872479838445e-02
1.277668482443609643e-01
3.105262255836900853e-01
5.919164604952061381e+02
6.050821447118430569e+02
3.000000000000000000e+00
