# 
#          w(z) = -1 - A*exp(-z)*(z**n- z - C)
#             * * * New lims for params * * *
# 
#         Results are displayed in the following order: 
#         w(z=0), chi2min, chi2reduced,
#         w_params, h, omegabh2, omegach2, OmegaM,
#         aic, bic, m_params
#         
#         bounds = [(A),       (n),    (C),     (h), (omegabh2), (omegach2)]
#         bounds = [(-50, 50), (0, 1), (-5, 5), (0.5, 0.8), (0.005, 0.045),
#               (0.001, 0.2)]
#         
#         
-3.846522848039025666e-01
5.794457989420392323e+02
9.837789455722227849e-01
-3.433168436546335300e+00
5.567377146565849477e-01
1.792360982483920395e-01
6.891118844803921784e-01
2.272141514140751939e-02
1.216210772004505530e-01
3.039587992475810130e-01
5.914457989420392323e+02
6.177771673753129562e+02
6.000000000000000000e+00
