# 
#     chain for 6-D space in the format: (w0, w1, w2, w3, h, OmegaM) for the N steps
#     
5.533143888098852603e-01 9.819460574076209980e+00 3.449530758002318898e+00 1.775740580982849925e+00 6.171915566943249054e-01 4.474997118294738452e-01
5.534083563516498661e-01 9.849144077985229728e+00 3.320884878002945850e+00 1.781288881805408453e+00 6.178429243348130262e-01 4.417474609650918205e-01
6.178293487220846147e-01 9.920187038107135535e+00 3.331404851077116813e+00 1.848789477003753623e+00 6.151628117385450345e-01 4.284886137951837703e-01
6.178293487220846147e-01 9.920187038107135535e+00 3.331404851077116813e+00 1.848789477003753623e+00 6.151628117385450345e-01 4.284886137951837703e-01
6.178293487220846147e-01 9.920187038107135535e+00 3.331404851077116813e+00 1.848789477003753623e+00 6.151628117385450345e-01 4.284886137951837703e-01
5.701414320842843608e-01 9.981229437082244971e+00 3.401430922419075298e+00 1.832270925982332210e+00 6.294589851236178646e-01 4.271980404974017875e-01
6.058725085656988529e-01 1.003682154857263775e+01 3.382705111064979953e+00 1.734158272612954743e+00 6.296857730133652575e-01 4.262144893849461602e-01
7.045484853193817454e-01 1.011305765577221116e+01 3.350240542093862572e+00 1.772777880863991795e+00 6.359900237013936808e-01 4.267601112591844492e-01
6.843241479060822030e-01 1.009788706150205684e+01 3.357326950610208360e+00 1.730272086136862342e+00 6.392598715466644155e-01 4.210424992071210015e-01
6.017469076970787256e-01 1.008862039444309744e+01 3.404226319822023950e+00 1.697061679947839075e+00 6.451596784748931945e-01 4.179617896580567482e-01
6.189541008986751969e-01 1.004004027630253937e+01 3.411752841409864345e+00 1.701544549463968270e+00 6.447254046939496774e-01 4.114774980978160857e-01
6.189541008986751969e-01 1.004004027630253937e+01 3.411752841409864345e+00 1.701544549463968270e+00 6.447254046939496774e-01 4.114774980978160857e-01
6.609248201746011908e-01 1.001043194578791962e+01 3.395932380675266149e+00 1.650076461977867837e+00 6.421275510594984803e-01 3.939194530290042739e-01
7.256517760537942729e-01 9.956426018436506098e+00 3.286538170316632979e+00 1.626619574472318641e+00 6.478485350965472733e-01 3.822071382966608644e-01
7.316992051930378826e-01 9.987223695643118404e+00 3.241470444158180086e+00 1.539376237101093725e+00 6.429745503761411518e-01 3.785421417147699086e-01
6.824392539322634565e-01 1.001426096433055513e+01 3.158327488192186117e+00 1.566709739045247574e+00 6.308162255630513915e-01 3.748760987897299390e-01
6.692146508124389159e-01 9.966657613165413210e+00 3.235222223926271123e+00 1.555328195319945817e+00 6.256277034838564344e-01 3.901341179085133226e-01
7.041201844136525390e-01 9.989166401571447196e+00 3.308773052588831032e+00 1.625549142864200158e+00 6.334745766257394717e-01 3.863286288715806482e-01
7.800789948004152041e-01 9.950102570497184828e+00 3.283288352302013990e+00 1.652492627320826024e+00 6.339628931180086857e-01 3.893920892402547018e-01
7.706576714632796810e-01 9.892285396142344922e+00 3.264888091391719538e+00 1.616210027662076110e+00 6.420980560703974938e-01 3.820580596556715780e-01
7.977124093795926463e-01 9.832386487879499981e+00 3.406154554092648556e+00 1.649913463447110873e+00 6.441901227090937043e-01 3.825811093880625569e-01
7.809876324464412045e-01 9.938263261444880925e+00 3.403502102549095021e+00 1.600210846541224363e+00 6.497788933910516596e-01 3.894363347106214457e-01
7.254331586871750615e-01 9.885442726794922308e+00 3.361234824644288466e+00 1.595612334450522862e+00 6.459677292601454512e-01 3.834025239723028444e-01
7.424488360704062373e-01 9.930403788640388640e+00 3.407671009081807423e+00 1.530729754984359481e+00 6.535060968064717590e-01 3.808185107564986960e-01
7.267663626487798068e-01 9.970404689651163110e+00 3.373408575639021745e+00 1.575825117724061419e+00 6.498174661389610751e-01 3.803629499813920845e-01
7.267663626487798068e-01 9.970404689651163110e+00 3.373408575639021745e+00 1.575825117724061419e+00 6.498174661389610751e-01 3.803629499813920845e-01
7.267663626487798068e-01 9.970404689651163110e+00 3.373408575639021745e+00 1.575825117724061419e+00 6.498174661389610751e-01 3.803629499813920845e-01
7.012947148221663207e-01 9.975312592290640268e+00 3.372940127046757830e+00 1.528778145904784447e+00 6.669668996319491061e-01 3.749195159211428652e-01
7.157185344416813200e-01 9.949452460431080780e+00 3.378455552930194283e+00 1.564468898983849554e+00 6.440717714943245964e-01 3.805368713937669067e-01
6.488056770085735003e-01 9.959169997669196306e+00 3.378036858442424961e+00 1.548384692567356113e+00 6.485459599532572561e-01 3.729773765180528500e-01
6.488056770085735003e-01 9.959169997669196306e+00 3.378036858442424961e+00 1.548384692567356113e+00 6.485459599532572561e-01 3.729773765180528500e-01
6.488056770085735003e-01 9.959169997669196306e+00 3.378036858442424961e+00 1.548384692567356113e+00 6.485459599532572561e-01 3.729773765180528500e-01
6.800284654643071747e-01 9.863996389213838256e+00 3.395482554908618056e+00 1.599897805925270422e+00 6.381027955319584777e-01 3.655768187052170770e-01
7.201829855200077013e-01 9.818837767761531055e+00 3.442269061440993649e+00 1.626327393544200639e+00 6.347349461571623053e-01 3.757662319809759732e-01
7.251262362450225929e-01 9.867119978948299064e+00 3.438885661506683178e+00 1.614141557141549166e+00 6.442945077832074041e-01 3.752978529201199120e-01
7.380053833082612647e-01 9.959616522268730066e+00 3.433629032521607893e+00 1.661929104722767336e+00 6.427027321107910973e-01 3.651014612811079862e-01
7.380053833082612647e-01 9.959616522268730066e+00 3.433629032521607893e+00 1.661929104722767336e+00 6.427027321107910973e-01 3.651014612811079862e-01
6.803475450187098650e-01 9.960347121435106033e+00 3.422406575676605112e+00 1.672525510093226364e+00 6.582938783078610134e-01 3.547482290123410986e-01
6.803475450187098650e-01 9.960347121435106033e+00 3.422406575676605112e+00 1.672525510093226364e+00 6.582938783078610134e-01 3.547482290123410986e-01
6.483791567505124975e-01 9.954725456411935625e+00 3.523372789583991693e+00 1.739871891241716817e+00 6.594070226141273139e-01 3.594983424434468611e-01
6.483791567505124975e-01 9.954725456411935625e+00 3.523372789583991693e+00 1.739871891241716817e+00 6.594070226141273139e-01 3.594983424434468611e-01
6.483791567505124975e-01 9.954725456411935625e+00 3.523372789583991693e+00 1.739871891241716817e+00 6.594070226141273139e-01 3.594983424434468611e-01
5.771072631811645648e-01 9.927136210429978291e+00 3.544458427354499008e+00 1.768696168794295476e+00 6.670498045065579307e-01 3.659352702834691162e-01
6.568110806094609178e-01 9.955473189924891386e+00 3.584297985878970305e+00 1.803732234783956168e+00 6.513697937551253814e-01 3.658599015754209205e-01
6.568110806094609178e-01 9.955473189924891386e+00 3.584297985878970305e+00 1.803732234783956168e+00 6.513697937551253814e-01 3.658599015754209205e-01
7.055606971592480736e-01 9.941301926290547541e+00 3.627574919190337255e+00 1.814116854637659371e+00 6.601786707115973041e-01 3.590793637735091859e-01
7.046959668727467152e-01 9.898721108070560604e+00 3.619632988829886155e+00 1.671787694373251476e+00 6.655256082888887370e-01 3.692843419932350102e-01
6.959146619692923030e-01 9.927136022689385442e+00 3.551690816845100684e+00 1.762220956020221774e+00 6.352258324186568217e-01 3.736236789671603664e-01
6.644188134445371263e-01 9.960201492887147623e+00 3.640183816975436581e+00 1.719340055013286905e+00 6.371036431319929694e-01 3.828887533651033070e-01
5.797107832138870265e-01 1.006565217890498865e+01 3.633439871175202729e+00 1.759648351863411841e+00 6.412293026173849775e-01 3.930683961445718966e-01
5.797107832138870265e-01 1.006565217890498865e+01 3.633439871175202729e+00 1.759648351863411841e+00 6.412293026173849775e-01 3.930683961445718966e-01
5.208381496558265322e-01 1.006914051830824874e+01 3.696192397491137704e+00 1.761483411261235199e+00 6.407083862659401774e-01 3.941506461557129914e-01
5.415078489670202000e-01 1.004719103228332244e+01 3.712018492031595507e+00 1.782709648102762445e+00 6.405428708294506057e-01 3.954128166629278796e-01
5.410336987161507016e-01 1.009007512667736250e+01 3.686723067924538633e+00 1.776863618780856635e+00 6.396150627367583885e-01 3.883870559189938065e-01
5.410336987161507016e-01 1.009007512667736250e+01 3.686723067924538633e+00 1.776863618780856635e+00 6.396150627367583885e-01 3.883870559189938065e-01
5.392500780007235539e-01 9.990687931805865674e+00 3.648848458264938532e+00 1.712415556289869523e+00 6.501072868266614124e-01 3.920438329725323690e-01
5.392500780007235539e-01 9.990687931805865674e+00 3.648848458264938532e+00 1.712415556289869523e+00 6.501072868266614124e-01 3.920438329725323690e-01
4.562436947890872174e-01 9.879103192778757148e+00 3.731818914680894661e+00 1.786333019176542747e+00 6.462651413638134112e-01 3.770879845955232845e-01
3.995577062960247172e-01 9.842684028729348000e+00 3.623329637573579731e+00 1.785658349452976301e+00 6.467030498279304762e-01 3.769212078246224062e-01
4.265063615536535679e-01 9.861225081828489891e+00 3.653643015950006401e+00 1.844513082775677493e+00 6.518935893628722278e-01 3.716503666635271319e-01
4.265063615536535679e-01 9.861225081828489891e+00 3.653643015950006401e+00 1.844513082775677493e+00 6.518935893628722278e-01 3.716503666635271319e-01
4.455988340759857169e-01 9.808674986916560812e+00 3.669349398896773806e+00 1.891131261713181910e+00 6.502995026445843596e-01 3.745592991000356586e-01
3.862475442945579873e-01 9.886469745486541782e+00 3.705146134060596452e+00 1.919110698298134965e+00 6.660553741026979946e-01 3.621765703968475858e-01
4.226021694401188022e-01 9.858381886467611821e+00 3.735214132047395275e+00 1.892282212064493763e+00 6.536772923034451788e-01 3.621008731471887510e-01
4.320831065539162408e-01 9.802367729062440915e+00 3.646436766004508723e+00 1.941619095056347444e+00 6.447985863371271664e-01 3.673927940960508565e-01
4.312860570906884017e-01 9.793386628480879708e+00 3.660431448273964161e+00 1.944049616700452177e+00 6.607947450044884263e-01 3.607062654176524941e-01
4.370765256760070772e-01 9.762296688057594096e+00 3.771251068550681040e+00 2.037132362937474017e+00 6.564248099967051608e-01 3.634827393088091996e-01
5.116575005544179433e-01 9.775035632755205484e+00 3.769978850582413443e+00 1.990330956492743386e+00 6.637604361794200436e-01 3.547709554617206051e-01
5.116575005544179433e-01 9.775035632755205484e+00 3.769978850582413443e+00 1.990330956492743386e+00 6.637604361794200436e-01 3.547709554617206051e-01
5.160525036129773868e-01 9.789850365830824686e+00 3.798918712956222521e+00 1.966780242010115476e+00 6.675179213480321172e-01 3.520860250470084218e-01
4.493180959085956161e-01 9.866832817531189903e+00 3.897127867300546278e+00 1.988651071886432309e+00 6.525640918679300739e-01 3.567095668521226837e-01
5.268181828433807778e-01 9.928335510043119427e+00 3.892874751287684010e+00 1.985084740135486747e+00 6.436110020849628022e-01 3.495380352746932928e-01
5.268181828433807778e-01 9.928335510043119427e+00 3.892874751287684010e+00 1.985084740135486747e+00 6.436110020849628022e-01 3.495380352746932928e-01
5.268181828433807778e-01 9.928335510043119427e+00 3.892874751287684010e+00 1.985084740135486747e+00 6.436110020849628022e-01 3.495380352746932928e-01
4.922651286222760603e-01 9.869051123518058688e+00 3.852260393376265579e+00 2.033723172789118294e+00 6.432910723387756935e-01 3.495146868335411994e-01
3.467760262803160076e-01 9.975032825616485965e+00 3.788303131926487932e+00 2.067079603409848865e+00 6.448952918472375950e-01 3.435313002611150024e-01
2.945552882402484585e-01 9.966508089622365674e+00 3.774362373010319516e+00 2.042508316283833558e+00 6.542954645748769726e-01 3.457225215439930222e-01
2.945552882402484585e-01 9.966508089622365674e+00 3.774362373010319516e+00 2.042508316283833558e+00 6.542954645748769726e-01 3.457225215439930222e-01
3.336502479785264375e-01 1.004307426038814732e+01 3.778521708248999911e+00 2.025542825779073297e+00 6.571293156029377469e-01 3.411256059698147269e-01
3.016591582520617432e-01 1.005698376252330029e+01 3.874352400808249719e+00 2.023240133908398963e+00 6.532918661993160070e-01 3.470308207455329308e-01
3.207130872590651660e-01 1.007266377611593633e+01 3.848123968752205748e+00 2.074553530227726483e+00 6.607218503196150561e-01 3.502910823806775209e-01
3.207130872590651660e-01 1.007266377611593633e+01 3.848123968752205748e+00 2.074553530227726483e+00 6.607218503196150561e-01 3.502910823806775209e-01
4.494625749955025173e-01 1.000687296895635292e+01 3.892557856274276862e+00 2.103769405815788751e+00 6.386729573053486764e-01 3.420757381984670387e-01
5.085062271022386948e-01 9.964068283657026015e+00 3.865123009437659185e+00 2.071831231161060938e+00 6.408052404891285692e-01 3.457707958997501829e-01
5.085062271022386948e-01 9.964068283657026015e+00 3.865123009437659185e+00 2.071831231161060938e+00 6.408052404891285692e-01 3.457707958997501829e-01
5.085062271022386948e-01 9.964068283657026015e+00 3.865123009437659185e+00 2.071831231161060938e+00 6.408052404891285692e-01 3.457707958997501829e-01
5.085062271022386948e-01 9.964068283657026015e+00 3.865123009437659185e+00 2.071831231161060938e+00 6.408052404891285692e-01 3.457707958997501829e-01
5.085062271022386948e-01 9.964068283657026015e+00 3.865123009437659185e+00 2.071831231161060938e+00 6.408052404891285692e-01 3.457707958997501829e-01
5.085062271022386948e-01 9.964068283657026015e+00 3.865123009437659185e+00 2.071831231161060938e+00 6.408052404891285692e-01 3.457707958997501829e-01
5.085062271022386948e-01 9.964068283657026015e+00 3.865123009437659185e+00 2.071831231161060938e+00 6.408052404891285692e-01 3.457707958997501829e-01
5.059045586911105064e-01 9.884313034778831053e+00 3.804050845672917625e+00 2.004116434439623173e+00 6.413240294346865822e-01 3.327974039495129599e-01
5.674367441968379833e-01 9.849822572639849838e+00 3.836425992241417671e+00 2.000189340909254376e+00 6.412904119333880937e-01 3.330944596164656657e-01
6.078025834178872877e-01 9.902010865702429498e+00 3.924026765543497941e+00 1.953242368114710192e+00 6.375473723500454382e-01 3.241310562512493831e-01
5.605465152981605748e-01 9.915942580542266072e+00 3.951096435293739439e+00 1.922342518722087945e+00 6.327846338651565983e-01 3.283830262183146664e-01
5.201272820386240170e-01 9.876693049998888085e+00 3.932830111717860788e+00 2.029437741100555748e+00 6.444308370069777858e-01 3.229210030477678850e-01
4.619042960656274954e-01 9.930475299401365419e+00 3.877225356160955538e+00 2.057856470764774848e+00 6.388447164038316695e-01 3.340578598517345843e-01
4.526190971721591461e-01 9.978121927759552534e+00 3.903182836841651682e+00 2.141044049137125871e+00 6.465222543234905306e-01 3.274806659852646518e-01
4.526190971721591461e-01 9.978121927759552534e+00 3.903182836841651682e+00 2.141044049137125871e+00 6.465222543234905306e-01 3.274806659852646518e-01
4.526190971721591461e-01 9.978121927759552534e+00 3.903182836841651682e+00 2.141044049137125871e+00 6.465222543234905306e-01 3.274806659852646518e-01
4.816028179931551856e-01 9.927252652552894574e+00 3.884625851606639202e+00 2.108972201407125713e+00 6.423885093450383277e-01 3.361743763174786515e-01
4.733000161563270525e-01 9.906218740650537313e+00 3.694777992090996221e+00 2.055778710431364065e+00 6.450201461582620865e-01 3.473153931835972208e-01
5.209216990240096434e-01 9.992365526713763657e+00 3.747070019572692257e+00 2.145404966988120776e+00 6.479640352083372301e-01 3.508193851482660497e-01
5.209216990240096434e-01 9.992365526713763657e+00 3.747070019572692257e+00 2.145404966988120776e+00 6.479640352083372301e-01 3.508193851482660497e-01
4.252937948652650846e-01 1.013707777863803550e+01 3.739982349859224620e+00 2.114528817032433228e+00 6.339495040519058655e-01 3.489912475600124853e-01
3.920294637055480869e-01 1.014103487597099829e+01 3.797438664212068105e+00 2.055927038188086531e+00 6.317768216267304338e-01 3.515565548471909496e-01
3.625988959813683521e-01 1.018952337518393136e+01 3.805933225019337840e+00 2.056943596920826067e+00 6.367605746043762949e-01 3.498626038829508733e-01
3.541971973406852214e-01 1.023462669049344775e+01 3.817653657992304606e+00 2.078083853229180544e+00 6.439820662075819158e-01 3.652505510040829906e-01
3.385635474170735071e-01 1.034053811726678518e+01 3.871170632301091707e+00 2.100266507295599716e+00 6.519299967022882392e-01 3.658218456278873321e-01
3.385635474170735071e-01 1.034053811726678518e+01 3.871170632301091707e+00 2.100266507295599716e+00 6.519299967022882392e-01 3.658218456278873321e-01
3.385635474170735071e-01 1.034053811726678518e+01 3.871170632301091707e+00 2.100266507295599716e+00 6.519299967022882392e-01 3.658218456278873321e-01
3.385635474170735071e-01 1.034053811726678518e+01 3.871170632301091707e+00 2.100266507295599716e+00 6.519299967022882392e-01 3.658218456278873321e-01
3.126080355650386888e-01 1.032057836353563474e+01 3.853488012845578403e+00 2.032196027219284495e+00 6.398889897402382232e-01 3.691328062162759216e-01
3.126080355650386888e-01 1.032057836353563474e+01 3.853488012845578403e+00 2.032196027219284495e+00 6.398889897402382232e-01 3.691328062162759216e-01
3.126080355650386888e-01 1.032057836353563474e+01 3.853488012845578403e+00 2.032196027219284495e+00 6.398889897402382232e-01 3.691328062162759216e-01
3.126080355650386888e-01 1.032057836353563474e+01 3.853488012845578403e+00 2.032196027219284495e+00 6.398889897402382232e-01 3.691328062162759216e-01
3.093551901584716823e-01 1.022152993780472663e+01 3.805419266527931832e+00 2.054330148659377908e+00 6.444328726831851650e-01 3.673526973781807703e-01
3.282268695916964463e-01 1.020872573342123424e+01 3.782715448335724151e+00 2.073650912003215829e+00 6.496364591176131409e-01 3.694840874257490637e-01
3.326201896354871179e-01 1.026073602865365508e+01 3.733753205178023560e+00 2.127695690605818424e+00 6.417550699863595609e-01 3.558849896008309810e-01
3.586771936686672380e-01 1.019837033922611447e+01 3.704528039599478628e+00 2.086765182983370437e+00 6.290612211632476969e-01 3.577161735554161837e-01
4.478149666455618072e-01 1.025134649369275586e+01 3.715223157912748597e+00 2.042227060812749517e+00 6.403097807761068960e-01 3.638851034721156674e-01
4.478149666455618072e-01 1.025134649369275586e+01 3.715223157912748597e+00 2.042227060812749517e+00 6.403097807761068960e-01 3.638851034721156674e-01
5.001201115217669413e-01 1.030316838700110971e+01 3.716250404578398836e+00 1.992282432268609904e+00 6.422238517349491138e-01 3.516788873839761798e-01
5.287882239862216061e-01 1.023385521892248740e+01 3.675284010967663217e+00 2.029465597964259072e+00 6.389301639417775958e-01 3.619207963668948924e-01
5.071592316230140174e-01 1.020080112526561678e+01 3.731698004907826327e+00 2.007289224241908254e+00 6.441945636319611479e-01 3.516411288196203966e-01
5.045022486214520985e-01 1.020821866124072130e+01 3.716375310920383868e+00 1.954410339750686232e+00 6.556451261807931807e-01 3.458293508299678520e-01
4.965843183925649496e-01 1.026157076821124292e+01 3.761804201461756758e+00 2.032861561804706341e+00 6.570390337067880671e-01 3.469259463339459670e-01
5.455464460028877083e-01 1.024116352743366676e+01 3.841518483771955150e+00 2.023494107639138395e+00 6.556004479705045407e-01 3.380853118508656552e-01
5.455464460028877083e-01 1.024116352743366676e+01 3.841518483771955150e+00 2.023494107639138395e+00 6.556004479705045407e-01 3.380853118508656552e-01
4.957525307803086201e-01 1.022894974976921567e+01 3.841840719242897606e+00 1.923880656819752177e+00 6.514565858913368146e-01 3.336487314895319467e-01
4.540830210908907150e-01 1.017778894996157568e+01 3.870975712169643757e+00 1.877615796084626254e+00 6.514146512074110440e-01 3.182899152950746102e-01
3.735345930805460402e-01 1.012713753894888669e+01 3.914580228185528643e+00 2.019588786651976164e+00 6.456683933330837899e-01 3.192975929725143658e-01
3.645877392908606351e-01 1.013254952712267709e+01 3.927754004407769006e+00 2.014874600747944999e+00 6.544928844922314193e-01 3.213824540625989101e-01
3.356263011419191589e-01 1.010935414338524652e+01 3.920375521916047656e+00 2.067082705924073061e+00 6.604785576910403577e-01 3.243768229269556880e-01
3.356263011419191589e-01 1.010935414338524652e+01 3.920375521916047656e+00 2.067082705924073061e+00 6.604785576910403577e-01 3.243768229269556880e-01
3.356263011419191589e-01 1.010935414338524652e+01 3.920375521916047656e+00 2.067082705924073061e+00 6.604785576910403577e-01 3.243768229269556880e-01
3.356263011419191589e-01 1.010935414338524652e+01 3.920375521916047656e+00 2.067082705924073061e+00 6.604785576910403577e-01 3.243768229269556880e-01
3.107979239364172530e-01 1.010578063533856508e+01 3.864866585395700049e+00 2.039209020642763548e+00 6.473220602917904021e-01 3.305410745153923857e-01
3.107979239364172530e-01 1.010578063533856508e+01 3.864866585395700049e+00 2.039209020642763548e+00 6.473220602917904021e-01 3.305410745153923857e-01
2.462349459313306621e-01 1.010634691006661257e+01 3.960773351819271593e+00 2.042156021188523241e+00 6.358418533413447982e-01 3.448838851974364017e-01
2.462349459313306621e-01 1.010634691006661257e+01 3.960773351819271593e+00 2.042156021188523241e+00 6.358418533413447982e-01 3.448838851974364017e-01
2.162905831344189012e-01 1.015769835798830911e+01 3.874961668863278419e+00 2.030578949030855007e+00 6.450859160724916608e-01 3.502365834908900410e-01
1.864529159228207056e-01 1.006733630843372396e+01 3.825665520795802799e+00 2.023474344205031361e+00 6.375327809255525446e-01 3.400398354186581762e-01
2.198769862114635654e-01 1.011012829602891294e+01 3.753926300729680587e+00 2.046746322264680007e+00 6.397912891217844011e-01 3.444260184637684685e-01
2.825709697620580885e-01 1.013032881387795037e+01 3.786696409080486436e+00 2.066093562336394296e+00 6.462598084148770683e-01 3.359918000591407550e-01
3.535622825086073839e-01 1.000788816126103598e+01 3.715098989280367636e+00 2.109519662229279113e+00 6.448399620291028755e-01 3.395107648841446113e-01
3.014201478894717456e-01 1.002581415919272345e+01 3.656857266038355814e+00 2.093851508706071396e+00 6.586413491507389084e-01 3.396676969604444096e-01
3.014201478894717456e-01 1.002581415919272345e+01 3.656857266038355814e+00 2.093851508706071396e+00 6.586413491507389084e-01 3.396676969604444096e-01
3.014201478894717456e-01 1.002581415919272345e+01 3.656857266038355814e+00 2.093851508706071396e+00 6.586413491507389084e-01 3.396676969604444096e-01
3.014201478894717456e-01 1.002581415919272345e+01 3.656857266038355814e+00 2.093851508706071396e+00 6.586413491507389084e-01 3.396676969604444096e-01
2.457291884299993567e-01 1.007819925482124113e+01 3.667808666497251568e+00 2.183178104959691446e+00 6.518085869248411157e-01 3.403555479991491328e-01
1.841618454204236588e-01 1.017349193035112442e+01 3.590813274592364213e+00 2.146362273567003154e+00 6.472052589195410599e-01 3.370846171892279419e-01
1.019468920044305921e-01 1.018053816202322004e+01 3.458126171881104050e+00 2.147377785189826582e+00 6.512772369264445693e-01 3.484302528339239813e-01
1.697347219951605979e-02 1.018395573374486496e+01 3.476282324386568146e+00 2.123949574933467144e+00 6.504296856766338397e-01 3.567109993717693106e-01
-2.861428373559789240e-02 1.024200570830559265e+01 3.434127652119974172e+00 2.072086442651670080e+00 6.526555004014231720e-01 3.518430561006706814e-01
-5.967418567472550922e-02 1.027262774200682038e+01 3.473196327475208900e+00 2.083944919863580658e+00 6.545769462400290450e-01 3.623634042796523569e-01
-5.967418567472550922e-02 1.027262774200682038e+01 3.473196327475208900e+00 2.083944919863580658e+00 6.545769462400290450e-01 3.623634042796523569e-01
-7.595603800769415437e-02 1.023415077817805674e+01 3.460889843448781367e+00 2.103458318530031512e+00 6.571204348346404434e-01 3.639602684500321539e-01
-7.595603800769415437e-02 1.023415077817805674e+01 3.460889843448781367e+00 2.103458318530031512e+00 6.571204348346404434e-01 3.639602684500321539e-01
-1.479372291629099112e-01 1.018897464284269283e+01 3.480912992049071342e+00 2.135086780284406682e+00 6.658758805474606079e-01 3.394585222933332869e-01
-1.136980501215185679e-01 1.020418232822982674e+01 3.460122349896257887e+00 2.114726349751842260e+00 6.689651066370009280e-01 3.221347856988380220e-01
-1.136980501215185679e-01 1.020418232822982674e+01 3.460122349896257887e+00 2.114726349751842260e+00 6.689651066370009280e-01 3.221347856988380220e-01
-9.901490824120615097e-02 1.015842041912990723e+01 3.461663743902313239e+00 2.075369534090386381e+00 6.705757017140536735e-01 3.331709619408337320e-01
-4.286853873588702957e-02 1.025423290974131696e+01 3.391527114403016352e+00 2.057701240790739128e+00 6.721513130767264865e-01 3.298866763837294824e-01
-1.499021634106282794e-02 1.025583062404451695e+01 3.413306704685116433e+00 1.996021189787554606e+00 6.613711829431763167e-01 3.258351915697722534e-01
-2.303749311919831011e-02 1.028787655371679222e+01 3.351883740356787822e+00 2.016405978871619986e+00 6.690720999489813137e-01 3.073034287431927192e-01
-2.303749311919831011e-02 1.028787655371679222e+01 3.351883740356787822e+00 2.016405978871619986e+00 6.690720999489813137e-01 3.073034287431927192e-01
2.335604386076268330e-02 1.033713013879595799e+01 3.340674148395042842e+00 1.962733071471887358e+00 6.737749314105587750e-01 3.134635975761331239e-01
-1.803280269584744272e-03 1.037468262619798409e+01 3.366661263164347773e+00 2.032253209629779178e+00 6.565646405239119465e-01 3.191418757069025003e-01
-3.970637970872892275e-02 1.041689792503114909e+01 3.380643922865512963e+00 1.960648746336856929e+00 6.764663275441303858e-01 3.137251204713497610e-01
-3.970637970872892275e-02 1.041689792503114909e+01 3.380643922865512963e+00 1.960648746336856929e+00 6.764663275441303858e-01 3.137251204713497610e-01
-1.313758756054623708e-02 1.042698825918976091e+01 3.459804546142526860e+00 2.002131053662107085e+00 6.883394959969828530e-01 2.979766313064529104e-01
-1.237340329802060802e-02 1.041862183729525881e+01 3.519939201056650369e+00 1.972935329204599464e+00 6.869459406160240977e-01 2.999377057779071265e-01
-4.599555168509015385e-02 1.051828403979052950e+01 3.557365069944376401e+00 1.965083055149818847e+00 6.784280265861427628e-01 2.775321741347954729e-01
-4.599555168509015385e-02 1.051828403979052950e+01 3.557365069944376401e+00 1.965083055149818847e+00 6.784280265861427628e-01 2.775321741347954729e-01
7.099116538977455482e-03 1.049299807616048597e+01 3.536376076338307861e+00 1.901198879272671505e+00 6.887301508949751350e-01 2.826068710672663409e-01
-2.405068673956745409e-02 1.047686170146357298e+01 3.541229878456722435e+00 1.941389773942372887e+00 6.742165996170975673e-01 2.898720701193681082e-01
-8.295144519662810134e-03 1.041689960326341335e+01 3.515787500314853542e+00 1.981552488597359662e+00 6.762619255093644810e-01 2.811658507098854232e-01
-1.346993235670934097e-01 1.036775783402858231e+01 3.566588565248558496e+00 2.007270553898348187e+00 6.788739119093016861e-01 2.836424384596263892e-01
-1.346993235670934097e-01 1.036775783402858231e+01 3.566588565248558496e+00 2.007270553898348187e+00 6.788739119093016861e-01 2.836424384596263892e-01
-1.346993235670934097e-01 1.036775783402858231e+01 3.566588565248558496e+00 2.007270553898348187e+00 6.788739119093016861e-01 2.836424384596263892e-01
-1.530351861069668140e-01 1.036408855372636673e+01 3.527815331228126627e+00 2.010237080292239131e+00 6.805854072870456406e-01 2.756374925490925887e-01
-1.562462839537731574e-01 1.034981440255177532e+01 3.528254388674715081e+00 1.908331089863637864e+00 6.850758434561753374e-01 2.660330003247342034e-01
-1.138000847834577667e-01 1.030719048949213246e+01 3.530276711342904772e+00 1.991895763523791274e+00 6.862668257213700995e-01 2.799623213323882420e-01
-1.319916292226064325e-01 1.020829768163643259e+01 3.508135293615580963e+00 2.010764407449603386e+00 6.927438736794325758e-01 2.898057648524434149e-01
-1.319916292226064325e-01 1.020829768163643259e+01 3.508135293615580963e+00 2.010764407449603386e+00 6.927438736794325758e-01 2.898057648524434149e-01
-1.017590907573376197e-01 1.015220761112491310e+01 3.433160835498850538e+00 2.036452234564066988e+00 6.857197890786557171e-01 2.969049671154948555e-01
-1.017590907573376197e-01 1.015220761112491310e+01 3.433160835498850538e+00 2.036452234564066988e+00 6.857197890786557171e-01 2.969049671154948555e-01
-1.017590907573376197e-01 1.015220761112491310e+01 3.433160835498850538e+00 2.036452234564066988e+00 6.857197890786557171e-01 2.969049671154948555e-01
-3.032906665549534031e-02 1.010914151155125396e+01 3.397593790446161499e+00 2.078090264572827195e+00 6.974759084333370662e-01 2.746032088966785523e-01
-1.065714081201026009e-02 1.005255261909258913e+01 3.426742767641156373e+00 1.926167761698242220e+00 6.885519655646662462e-01 2.672490166680262513e-01
-3.266727394726878786e-02 1.002223268002111567e+01 3.409173354186061378e+00 1.974587958182586256e+00 6.973273208275980739e-01 2.593650712806221392e-01
-5.231463190984923795e-02 1.006012757214002029e+01 3.422918722597450891e+00 1.938258486340443731e+00 7.004040926260356459e-01 2.817016151657106837e-01
-1.010218838928867713e-01 1.008453802773223629e+01 3.377543424434015673e+00 2.002313689860971024e+00 6.975303118949144343e-01 2.696115259912934548e-01
-1.010218838928867713e-01 1.008453802773223629e+01 3.377543424434015673e+00 2.002313689860971024e+00 6.975303118949144343e-01 2.696115259912934548e-01
-1.010218838928867713e-01 1.008453802773223629e+01 3.377543424434015673e+00 2.002313689860971024e+00 6.975303118949144343e-01 2.696115259912934548e-01
-9.260615504052213676e-02 1.005218309581665714e+01 3.370346257467884854e+00 2.048584753571178307e+00 6.768531210694425093e-01 2.735860475674818382e-01
-7.759456031576893176e-02 1.006334899643621306e+01 3.432989677204806078e+00 1.969759672037375786e+00 6.771859777274099601e-01 2.739100592977863902e-01
-7.345899686402815321e-02 1.008304778131412860e+01 3.412098056436910110e+00 1.948759746852265939e+00 6.764689391627214388e-01 2.792217658408344128e-01
-5.422945345483121127e-02 1.002958938170791825e+01 3.413774299223220066e+00 1.885950982053865577e+00 6.815058915791922800e-01 2.694771991451788695e-01
-1.057304225363163985e-01 1.000618972656030969e+01 3.468513934943160404e+00 1.911470138490046100e+00 6.966911840784687504e-01 2.552912516180024793e-01
-1.024664913205750455e-01 1.000650128986896803e+01 3.456041838502838193e+00 1.908791392196617531e+00 6.843647928550463666e-01 2.547126211609652136e-01
-1.346119726628908220e-01 1.000915037326036128e+01 3.503194485165760153e+00 1.937030136289944693e+00 6.874724445799844652e-01 2.558742441162517034e-01
-1.346119726628908220e-01 1.000915037326036128e+01 3.503194485165760153e+00 1.937030136289944693e+00 6.874724445799844652e-01 2.558742441162517034e-01
-1.346119726628908220e-01 1.000915037326036128e+01 3.503194485165760153e+00 1.937030136289944693e+00 6.874724445799844652e-01 2.558742441162517034e-01
-6.831481194972888193e-02 1.001891691849089305e+01 3.529913689828211076e+00 1.948470517934674406e+00 6.802101653649725854e-01 2.537945438312736446e-01
-6.831481194972888193e-02 1.001891691849089305e+01 3.529913689828211076e+00 1.948470517934674406e+00 6.802101653649725854e-01 2.537945438312736446e-01
-9.905753442266465592e-02 1.002551201531704983e+01 3.630363826085182044e+00 1.963226195257787188e+00 6.954979913897527677e-01 2.609929572518538965e-01
-9.905753442266465592e-02 1.002551201531704983e+01 3.630363826085182044e+00 1.963226195257787188e+00 6.954979913897527677e-01 2.609929572518538965e-01
-9.905753442266465592e-02 1.002551201531704983e+01 3.630363826085182044e+00 1.963226195257787188e+00 6.954979913897527677e-01 2.609929572518538965e-01
-9.905753442266465592e-02 1.002551201531704983e+01 3.630363826085182044e+00 1.963226195257787188e+00 6.954979913897527677e-01 2.609929572518538965e-01
-8.916510118792071726e-02 1.003651808881046748e+01 3.650175588498650647e+00 1.956264195685478491e+00 6.965107805862550405e-01 2.626651545893711193e-01
-8.916510118792071726e-02 1.003651808881046748e+01 3.650175588498650647e+00 1.956264195685478491e+00 6.965107805862550405e-01 2.626651545893711193e-01
-6.830787882271290024e-02 1.001393687431497526e+01 3.694482670912293987e+00 1.941398462394269053e+00 6.982940139971594018e-01 2.712657111007707456e-01
-1.102769151137652365e-02 1.006153872615449352e+01 3.699324766003085685e+00 1.989741691219083286e+00 6.897414956125180741e-01 2.614218098505751708e-01
1.450062972271677630e-02 1.007516757097916305e+01 3.680863391476346891e+00 1.997795110170534461e+00 6.888664461621171187e-01 2.658901929895563510e-01
2.607720760421408310e-02 1.008124631157081907e+01 3.738888973344553612e+00 2.045714644151073625e+00 6.964827063003352636e-01 2.655565281163100866e-01
7.722876054477170737e-02 1.005503272809131765e+01 3.732982887615006629e+00 2.020388450047207574e+00 7.023721397237059350e-01 2.676492027405291130e-01
7.722876054477170737e-02 1.005503272809131765e+01 3.732982887615006629e+00 2.020388450047207574e+00 7.023721397237059350e-01 2.676492027405291130e-01
1.049248763313328087e-01 1.010777784050451622e+01 3.747149666756063091e+00 2.112553879607182772e+00 6.933225254804776805e-01 2.818595115583158450e-01
9.801938228828330213e-02 1.015252872925947081e+01 3.811313710251603926e+00 2.155448454963995175e+00 7.081235787928755743e-01 2.707099089891538690e-01
9.801938228828330213e-02 1.015252872925947081e+01 3.811313710251603926e+00 2.155448454963995175e+00 7.081235787928755743e-01 2.707099089891538690e-01
3.980604692458844518e-02 1.018746303723825086e+01 3.834764602329436833e+00 2.222781675208777674e+00 7.036688405698209303e-01 2.561224366277415343e-01
3.980604692458844518e-02 1.018746303723825086e+01 3.834764602329436833e+00 2.222781675208777674e+00 7.036688405698209303e-01 2.561224366277415343e-01
4.207351607508900970e-02 1.016709871250349906e+01 3.800893146635926367e+00 2.172391275298144020e+00 7.110312389248960585e-01 2.504115089510730585e-01
-2.353944163799720490e-02 1.009268341268675861e+01 3.742444243624499123e+00 2.244497185457051902e+00 7.226251262592486846e-01 2.499043406840800452e-01
-7.989722104057128682e-02 1.017775334245779817e+01 3.721124547324213161e+00 2.236780690375942182e+00 7.207817395131459470e-01 2.492385682053818996e-01
1.128470694197347690e-02 1.017704236270347096e+01 3.706831913940247691e+00 2.210279066455398400e+00 7.211279364367448874e-01 2.519625587495002428e-01
1.198094624261583814e-02 1.023223236711583084e+01 3.590227678853833204e+00 2.215646230807567285e+00 6.862605960120593540e-01 2.493051770114505794e-01
5.384453694381909072e-02 1.018389408184082967e+01 3.639272698230265224e+00 2.257045404997225724e+00 6.985860054733517011e-01 2.590668557932672145e-01
5.384453694381909072e-02 1.018389408184082967e+01 3.639272698230265224e+00 2.257045404997225724e+00 6.985860054733517011e-01 2.590668557932672145e-01
5.384453694381909072e-02 1.018389408184082967e+01 3.639272698230265224e+00 2.257045404997225724e+00 6.985860054733517011e-01 2.590668557932672145e-01
6.982156102319986291e-02 1.012655471637844862e+01 3.664746994111250267e+00 2.268498275843458423e+00 6.959337439486924515e-01 2.656480332655431487e-01
7.304167299368724553e-03 1.008895905590604869e+01 3.613236344273534684e+00 2.307901083400789588e+00 6.882944531111041542e-01 2.679451535932499961e-01
7.304167299368724553e-03 1.008895905590604869e+01 3.613236344273534684e+00 2.307901083400789588e+00 6.882944531111041542e-01 2.679451535932499961e-01
7.304167299368724553e-03 1.008895905590604869e+01 3.613236344273534684e+00 2.307901083400789588e+00 6.882944531111041542e-01 2.679451535932499961e-01
-3.932958833680041955e-02 1.012869654993613899e+01 3.682065930376214880e+00 2.367864357327421843e+00 6.946002196507606863e-01 2.730294026694271015e-01
-5.068042926303521767e-03 1.017472121363344506e+01 3.692829303760881032e+00 2.394745549363093140e+00 6.978229548884170574e-01 2.728605451719987585e-01
-9.442936862150735911e-02 1.014381531157106409e+01 3.668465395384776784e+00 2.392096322134204200e+00 6.839178708722466471e-01 2.633168567545492444e-01
1.470829342161084075e-02 1.008382395340363047e+01 3.711045748499139929e+00 2.547212165430432496e+00 6.781468400264916152e-01 2.761970359847747969e-01
1.470829342161084075e-02 1.008382395340363047e+01 3.711045748499139929e+00 2.547212165430432496e+00 6.781468400264916152e-01 2.761970359847747969e-01
1.470829342161084075e-02 1.008382395340363047e+01 3.711045748499139929e+00 2.547212165430432496e+00 6.781468400264916152e-01 2.761970359847747969e-01
1.470829342161084075e-02 1.008382395340363047e+01 3.711045748499139929e+00 2.547212165430432496e+00 6.781468400264916152e-01 2.761970359847747969e-01
1.470829342161084075e-02 1.008382395340363047e+01 3.711045748499139929e+00 2.547212165430432496e+00 6.781468400264916152e-01 2.761970359847747969e-01
-5.572658710506349367e-03 1.006876103036031367e+01 3.749895929716540621e+00 2.520786656743145837e+00 6.882036234944408637e-01 2.837785972045122618e-01
3.810739604518127710e-02 1.007362810224047678e+01 3.725517587474524550e+00 2.524519619871756770e+00 6.789423974443075105e-01 2.909859727247672279e-01
3.810739604518127710e-02 1.007362810224047678e+01 3.725517587474524550e+00 2.524519619871756770e+00 6.789423974443075105e-01 2.909859727247672279e-01
6.716331821252448375e-02 1.006214821823355088e+01 3.701782938806394085e+00 2.485559169555966008e+00 6.825546241957349825e-01 3.003070659958955724e-01
1.149691739163903603e-01 1.009210604577473092e+01 3.781455992708282476e+00 2.558060282036227928e+00 6.922159641046590206e-01 2.927024510528258849e-01
1.807218442183457507e-01 1.010778815858021673e+01 3.804821515429433365e+00 2.568950675924735361e+00 6.804751118016807432e-01 2.854218704000578422e-01
1.807218442183457507e-01 1.010778815858021673e+01 3.804821515429433365e+00 2.568950675924735361e+00 6.804751118016807432e-01 2.854218704000578422e-01
1.311709886147701398e-01 1.010998321041190096e+01 3.759729294602235594e+00 2.531304555037761084e+00 6.703393485052620004e-01 2.918616237778660638e-01
1.259852350215192318e-01 1.007039565449053597e+01 3.733254732512838903e+00 2.508622816961592950e+00 6.644360853644415421e-01 3.000207581411174496e-01
6.837554854653188352e-02 1.005798563354620612e+01 3.730908936471261317e+00 2.577247347987503989e+00 6.712283267757243044e-01 2.913636054285004828e-01
5.613399644287638685e-02 1.011011308109009299e+01 3.678686548707064574e+00 2.613356385555978711e+00 6.814975657139530352e-01 3.036388987303095255e-01
5.613399644287638685e-02 1.011011308109009299e+01 3.678686548707064574e+00 2.613356385555978711e+00 6.814975657139530352e-01 3.036388987303095255e-01
8.072684084239444002e-02 1.009122291007503414e+01 3.613787845191085424e+00 2.582711920035912545e+00 6.792140931870995768e-01 2.940724277249660013e-01
8.995529402035722100e-02 1.010804985681214596e+01 3.723652406222542677e+00 2.506869072701475520e+00 6.810687784864964955e-01 2.933537033653140780e-01
9.931636191257232904e-02 1.007624488636812110e+01 3.699568139320253746e+00 2.525820781937022197e+00 6.879027007053757359e-01 3.044573150997447741e-01
9.931636191257232904e-02 1.007624488636812110e+01 3.699568139320253746e+00 2.525820781937022197e+00 6.879027007053757359e-01 3.044573150997447741e-01
1.523683823874134591e-01 1.005476586767739811e+01 3.644689208907655686e+00 2.533337070159985771e+00 6.841277535044060221e-01 2.987221905163081614e-01
1.523683823874134591e-01 1.005476586767739811e+01 3.644689208907655686e+00 2.533337070159985771e+00 6.841277535044060221e-01 2.987221905163081614e-01
1.487884449819038002e-01 1.007186831982262021e+01 3.615344879081821006e+00 2.433840929840357159e+00 6.840085959869010024e-01 2.977233554061466947e-01
1.487884449819038002e-01 1.007186831982262021e+01 3.615344879081821006e+00 2.433840929840357159e+00 6.840085959869010024e-01 2.977233554061466947e-01
1.487884449819038002e-01 1.007186831982262021e+01 3.615344879081821006e+00 2.433840929840357159e+00 6.840085959869010024e-01 2.977233554061466947e-01
1.107480349603111036e-01 1.004114577640844885e+01 3.545378780636372795e+00 2.402185417387046940e+00 6.871029133718983273e-01 2.950710975875452391e-01
1.351956682737138482e-01 1.002352865275489258e+01 3.635656976712088095e+00 2.458946511937089685e+00 6.975236921023346692e-01 2.879254940270458696e-01
1.351956682737138482e-01 1.002352865275489258e+01 3.635656976712088095e+00 2.458946511937089685e+00 6.975236921023346692e-01 2.879254940270458696e-01
1.045786411059386745e-01 9.910436784027837120e+00 3.613773757920525576e+00 2.407121624227194445e+00 6.979151632566931163e-01 2.850440768759265886e-01
1.270255583019770373e-01 9.953527639624978107e+00 3.636248808099162400e+00 2.390272599976844603e+00 6.942384470403696328e-01 2.893037926009568994e-01
1.724341199021309223e-01 9.943582774651634537e+00 3.591578679229880944e+00 2.436478875149525436e+00 6.905853415227155567e-01 2.991956433892336009e-01
1.638346688019576558e-01 1.003845280672087981e+01 3.605624109397217225e+00 2.446249759406245339e+00 7.017716413339093462e-01 2.892633774890833731e-01
1.190012272783653596e-01 1.001195935194713016e+01 3.606179966845057816e+00 2.372783333001454942e+00 6.982092088824425336e-01 2.886966498106287027e-01
1.014432646006319799e-01 9.987881958239176683e+00 3.609721000624338316e+00 2.369943247155243515e+00 7.031461303397127383e-01 2.936591760062385315e-01
1.422489700141481295e-01 9.902133888059035272e+00 3.661856726484277402e+00 2.340495163435194037e+00 7.024505800491810392e-01 2.888062915039978362e-01
1.883438208424693949e-01 9.912905719176382746e+00 3.654195308609998971e+00 2.397608852897106235e+00 7.048809247656609989e-01 2.845810973838441282e-01
1.883438208424693949e-01 9.912905719176382746e+00 3.654195308609998971e+00 2.397608852897106235e+00 7.048809247656609989e-01 2.845810973838441282e-01
2.908019886067357840e-01 9.915314563730744268e+00 3.674586912850788867e+00 2.400217970934369394e+00 6.950660309661788050e-01 2.744178643244961080e-01
2.908019886067357840e-01 9.915314563730744268e+00 3.674586912850788867e+00 2.400217970934369394e+00 6.950660309661788050e-01 2.744178643244961080e-01
3.564532248564664663e-01 9.914716584471392480e+00 3.619370750718396312e+00 2.448629983179180236e+00 6.867460705654959696e-01 2.698836067741261502e-01
3.564532248564664663e-01 9.914716584471392480e+00 3.619370750718396312e+00 2.448629983179180236e+00 6.867460705654959696e-01 2.698836067741261502e-01
4.434012465526548930e-01 9.932105640967076710e+00 3.563285192248611288e+00 2.470438539672171974e+00 6.949179565625192012e-01 2.766284994966426436e-01
4.086983762896856942e-01 9.895466716260830964e+00 3.535865302263029974e+00 2.517866927552103284e+00 7.014616841164635908e-01 2.842356582598385972e-01
4.233503190887645262e-01 9.906304848586481526e+00 3.509097058595656016e+00 2.522194516819281862e+00 6.857155752064586496e-01 2.882947395227156151e-01
4.570160190630560559e-01 9.964444593917400894e+00 3.451470927200704697e+00 2.518156581152089846e+00 6.901878205059974736e-01 2.860398095609125724e-01
5.334689393634819421e-01 9.956938222209037903e+00 3.433059836391909148e+00 2.512512413289910373e+00 7.104734738283566831e-01 3.009791819526118073e-01
5.970980415497585403e-01 1.003791783569160501e+01 3.508023473379099588e+00 2.572133542603740608e+00 7.026308643329624015e-01 2.914929049555878837e-01
6.131763369483091974e-01 1.004980115588378453e+01 3.558405241958075838e+00 2.542530486857572214e+00 6.845925258413831926e-01 2.762483891269106318e-01
5.798267581724919628e-01 1.001244225894938644e+01 3.619962924402841065e+00 2.528692433456568356e+00 7.109642495163629450e-01 2.794806623526059353e-01
6.218177220347077538e-01 1.000007403785372695e+01 3.529298253650233086e+00 2.556870192096177163e+00 7.192772694968004865e-01 2.860863534103513239e-01
6.300510846940559073e-01 9.951042913530001144e+00 3.492354716374865831e+00 2.509746443105523639e+00 7.189796081208646994e-01 2.834270548731868677e-01
6.527936638859336282e-01 9.960883495364832640e+00 3.432394723656102986e+00 2.453678147706584767e+00 7.017324999231036031e-01 2.765221694927564866e-01
6.527936638859336282e-01 9.960883495364832640e+00 3.432394723656102986e+00 2.453678147706584767e+00 7.017324999231036031e-01 2.765221694927564866e-01
6.527936638859336282e-01 9.960883495364832640e+00 3.432394723656102986e+00 2.453678147706584767e+00 7.017324999231036031e-01 2.765221694927564866e-01
7.225415253410299998e-01 1.001653113382834981e+01 3.477400983313450045e+00 2.549130452445229622e+00 7.159566969999973107e-01 2.760993504701658163e-01
6.862435696927023931e-01 9.924426983114717160e+00 3.424500930956463129e+00 2.584583981426632260e+00 7.273668860957839266e-01 2.635803261066008152e-01
8.083104353151799870e-01 9.980142349083926945e+00 3.542426968414025268e+00 2.655680259480667438e+00 7.367623243972660774e-01 2.748092186557314909e-01
8.848011214512585543e-01 9.935438059141825207e+00 3.495853536184511334e+00 2.632483321252878650e+00 7.229230625795665111e-01 2.818094852582843646e-01
8.848011214512585543e-01 9.935438059141825207e+00 3.495853536184511334e+00 2.632483321252878650e+00 7.229230625795665111e-01 2.818094852582843646e-01
9.012671392346497390e-01 9.901554567976894816e+00 3.478578939501539846e+00 2.593106495071931139e+00 7.368597359443244121e-01 2.833357239681048023e-01
9.012671392346497390e-01 9.901554567976894816e+00 3.478578939501539846e+00 2.593106495071931139e+00 7.368597359443244121e-01 2.833357239681048023e-01
9.512589103888247077e-01 9.898802955950078086e+00 3.437034126608851103e+00 2.688798505742985068e+00 7.449014618524588682e-01 2.934618491345049041e-01
1.012427625020112743e+00 9.819471973325471836e+00 3.504024069633226102e+00 2.711823939856864207e+00 7.423172727634058665e-01 2.822919316913380383e-01
9.551040487998998518e-01 9.838679529998589857e+00 3.613630148697632993e+00 2.686036648634693158e+00 7.504697115349783232e-01 2.823562066921780911e-01
9.650939854188880229e-01 9.769092207757937629e+00 3.619611073855005579e+00 2.743708379939218123e+00 7.389959346747344560e-01 2.945616605682515599e-01
9.885555845704352418e-01 9.764336847534274000e+00 3.623121018958332495e+00 2.615711807177787840e+00 7.354694055273824915e-01 2.865808753284619370e-01
9.885555845704352418e-01 9.764336847534274000e+00 3.623121018958332495e+00 2.615711807177787840e+00 7.354694055273824915e-01 2.865808753284619370e-01
9.330736767108565033e-01 9.853960812712147188e+00 3.590113963779063333e+00 2.636882664734663262e+00 7.289886027666923063e-01 2.972655708674495911e-01
9.305253821796680702e-01 9.860730926191020984e+00 3.573470718388676026e+00 2.568096137058996753e+00 7.254885357738465324e-01 2.977664478149978367e-01
1.004782050443061125e+00 9.837224924454636366e+00 3.574551052219318681e+00 2.602120157437433523e+00 7.287267610756923419e-01 3.025480422495869237e-01
1.004782050443061125e+00 9.837224924454636366e+00 3.574551052219318681e+00 2.602120157437433523e+00 7.287267610756923419e-01 3.025480422495869237e-01
1.004782050443061125e+00 9.837224924454636366e+00 3.574551052219318681e+00 2.602120157437433523e+00 7.287267610756923419e-01 3.025480422495869237e-01
1.004782050443061125e+00 9.837224924454636366e+00 3.574551052219318681e+00 2.602120157437433523e+00 7.287267610756923419e-01 3.025480422495869237e-01
1.004782050443061125e+00 9.837224924454636366e+00 3.574551052219318681e+00 2.602120157437433523e+00 7.287267610756923419e-01 3.025480422495869237e-01
1.004782050443061125e+00 9.837224924454636366e+00 3.574551052219318681e+00 2.602120157437433523e+00 7.287267610756923419e-01 3.025480422495869237e-01
1.004782050443061125e+00 9.837224924454636366e+00 3.574551052219318681e+00 2.602120157437433523e+00 7.287267610756923419e-01 3.025480422495869237e-01
1.012137028574040531e+00 9.807352354369982095e+00 3.569538881266761887e+00 2.679916938124291992e+00 7.226430030683000938e-01 3.051667893541644139e-01
1.032391494612010074e+00 9.882175512701424580e+00 3.528089785140456680e+00 2.622221254601243334e+00 7.121087895598064987e-01 2.981435930773427279e-01
1.016105208317664488e+00 9.900913501144989581e+00 3.479017799133262034e+00 2.641415299951765938e+00 7.142794626692940962e-01 2.917439148368453083e-01
1.042972541557401822e+00 9.858647283767663083e+00 3.572700341523372014e+00 2.684749471207914073e+00 7.276521541930328629e-01 2.880454629347144468e-01
1.042972541557401822e+00 9.858647283767663083e+00 3.572700341523372014e+00 2.684749471207914073e+00 7.276521541930328629e-01 2.880454629347144468e-01
1.042972541557401822e+00 9.858647283767663083e+00 3.572700341523372014e+00 2.684749471207914073e+00 7.276521541930328629e-01 2.880454629347144468e-01
1.042972541557401822e+00 9.858647283767663083e+00 3.572700341523372014e+00 2.684749471207914073e+00 7.276521541930328629e-01 2.880454629347144468e-01
1.105034538477538852e+00 9.791979926742973461e+00 3.564413695117909509e+00 2.688902589386710229e+00 7.429923163575180567e-01 2.889541042857844966e-01
1.141121291895271783e+00 9.782573336379186912e+00 3.587025809004556365e+00 2.718475023405000357e+00 7.384402634083572226e-01 2.863773176537925957e-01
1.170594831664950153e+00 9.804477388726635212e+00 3.585392540817858187e+00 2.724456768011445540e+00 7.365916339678177938e-01 2.807613625875038377e-01
1.085885060697316495e+00 9.798526431483104204e+00 3.520210121709772100e+00 2.725165216546531433e+00 7.352429414539752850e-01 2.675779880535831268e-01
1.085885060697316495e+00 9.798526431483104204e+00 3.520210121709772100e+00 2.725165216546531433e+00 7.352429414539752850e-01 2.675779880535831268e-01
1.044233837810694343e+00 9.812585120027836894e+00 3.521115796308294410e+00 2.832346702498636848e+00 7.371671755252859892e-01 2.563215437719244538e-01
1.095065852557226549e+00 9.830676236323116157e+00 3.528662983351932070e+00 2.752622250238982993e+00 7.598217773120796714e-01 2.491074814993376185e-01
1.095065852557226549e+00 9.830676236323116157e+00 3.528662983351932070e+00 2.752622250238982993e+00 7.598217773120796714e-01 2.491074814993376185e-01
1.111482091585319854e+00 9.848592311295899293e+00 3.494095772337974637e+00 2.767025008941119690e+00 7.628702360608670130e-01 2.471513936877705875e-01
1.111482091585319854e+00 9.848592311295899293e+00 3.494095772337974637e+00 2.767025008941119690e+00 7.628702360608670130e-01 2.471513936877705875e-01
1.043826357643040215e+00 9.885634405047781570e+00 3.528885042074129341e+00 2.771647066295877426e+00 7.800394423567488245e-01 2.501420973348420507e-01
1.078904414743728335e+00 9.805427642597626559e+00 3.539164296722514980e+00 2.701723605381399107e+00 7.741288108786306132e-01 2.573492336459041185e-01
1.078904414743728335e+00 9.805427642597626559e+00 3.539164296722514980e+00 2.701723605381399107e+00 7.741288108786306132e-01 2.573492336459041185e-01
1.115896575209232466e+00 9.792426285966861599e+00 3.591162154632852044e+00 2.651315605737010195e+00 7.669538788419321129e-01 2.599646095965616466e-01
1.196576587600885144e+00 9.736774703774633721e+00 3.649171445361408139e+00 2.651157205731109023e+00 7.730614989103941070e-01 2.660004882400963111e-01
1.204233703351584639e+00 9.839597506603270816e+00 3.656110612085456069e+00 2.652338370759306230e+00 7.577189576178307018e-01 2.584078111533051891e-01
1.264072543157219508e+00 9.810510886047742574e+00 3.538228100396060949e+00 2.632854323441547795e+00 7.590999607318716924e-01 2.662577204407636233e-01
1.264072543157219508e+00 9.810510886047742574e+00 3.538228100396060949e+00 2.632854323441547795e+00 7.590999607318716924e-01 2.662577204407636233e-01
1.277786482295211412e+00 9.730535067786824754e+00 3.455162784153131827e+00 2.606429531360505703e+00 7.548903402840436705e-01 2.610666686318298679e-01
1.277786482295211412e+00 9.730535067786824754e+00 3.455162784153131827e+00 2.606429531360505703e+00 7.548903402840436705e-01 2.610666686318298679e-01
1.321619623732460891e+00 9.726971758074927976e+00 3.466162585336152624e+00 2.511205723766143816e+00 7.485200890378077565e-01 2.634843213265649076e-01
1.288518964969890046e+00 9.764546309418653536e+00 3.403129915643680281e+00 2.545753559438303171e+00 7.549851382687394752e-01 2.529689935695053626e-01
1.293260952256150009e+00 9.741395228139982265e+00 3.365246419886596563e+00 2.580997809648193808e+00 7.692072480034189974e-01 2.734741100806566960e-01
1.308785205153740971e+00 9.770385643910463713e+00 3.359964554616211796e+00 2.567674953898839707e+00 7.849424774046172004e-01 2.682233338641505926e-01
1.386098249788495940e+00 9.742591499917491404e+00 3.383043365897686172e+00 2.601636210600662302e+00 7.837913412471176899e-01 2.627101592604516589e-01
1.386098249788495940e+00 9.742591499917491404e+00 3.383043365897686172e+00 2.601636210600662302e+00 7.837913412471176899e-01 2.627101592604516589e-01
1.386098249788495940e+00 9.742591499917491404e+00 3.383043365897686172e+00 2.601636210600662302e+00 7.837913412471176899e-01 2.627101592604516589e-01
1.386098249788495940e+00 9.742591499917491404e+00 3.383043365897686172e+00 2.601636210600662302e+00 7.837913412471176899e-01 2.627101592604516589e-01
1.358358574704497279e+00 9.747189653203065518e+00 3.368458720950830099e+00 2.570626407111539002e+00 8.001315772293974282e-01 2.495873082015341582e-01
1.358358574704497279e+00 9.747189653203065518e+00 3.368458720950830099e+00 2.570626407111539002e+00 8.001315772293974282e-01 2.495873082015341582e-01
1.375119919749361097e+00 9.766550384064036194e+00 3.412270807533897887e+00 2.498253389629113919e+00 7.840663234257667646e-01 2.439368013930864054e-01
1.414529129773034688e+00 9.823340436647765017e+00 3.460142594732250831e+00 2.651754297002509198e+00 7.857463422305632772e-01 2.592005362817189629e-01
1.523017965011574493e+00 9.799589591729244376e+00 3.494130434339328684e+00 2.708920105418066271e+00 7.759023403024775112e-01 2.674730480314995162e-01
1.507696208401638760e+00 9.854599357439251861e+00 3.456292027118146315e+00 2.697189135592727549e+00 7.812832345266046419e-01 2.688624380117798918e-01
1.507696208401638760e+00 9.854599357439251861e+00 3.456292027118146315e+00 2.697189135592727549e+00 7.812832345266046419e-01 2.688624380117798918e-01
1.507696208401638760e+00 9.854599357439251861e+00 3.456292027118146315e+00 2.697189135592727549e+00 7.812832345266046419e-01 2.688624380117798918e-01
1.507696208401638760e+00 9.854599357439251861e+00 3.456292027118146315e+00 2.697189135592727549e+00 7.812832345266046419e-01 2.688624380117798918e-01
1.567897147604252250e+00 9.917833503185217836e+00 3.490338612278420349e+00 2.744289980775223015e+00 7.938874286025605631e-01 2.751658009323455500e-01
1.540635188312577952e+00 9.872699584716054133e+00 3.509588693982613972e+00 2.779664824022007430e+00 7.932493333991363915e-01 2.636905027774480437e-01
1.717279908603654093e+00 9.811292200391438456e+00 3.495322516910661648e+00 2.842196175104520606e+00 7.876229381567519949e-01 2.599279133356297011e-01
1.739150637962183277e+00 9.810356996678828878e+00 3.567818994334995164e+00 2.844670331077741920e+00 7.825091759390602197e-01 2.724787955637541503e-01
1.729709272304393641e+00 9.878536373220699218e+00 3.611073328082225586e+00 2.886818205932363490e+00 8.065649436259403338e-01 2.618171586303472131e-01
1.731232144424498687e+00 9.864097741449173284e+00 3.637401736858933532e+00 2.765936613777800090e+00 8.070116603225687690e-01 2.644572726281552710e-01
1.802261347145046155e+00 9.834944663506954399e+00 3.758244785385514319e+00 2.768146310205587213e+00 8.049172305394313165e-01 2.641952956125981911e-01
1.812311012405118271e+00 9.904955582593194308e+00 3.767852476536489803e+00 2.753816847914327681e+00 7.967777464169166768e-01 2.613111359630774233e-01
1.812311012405118271e+00 9.904955582593194308e+00 3.767852476536489803e+00 2.753816847914327681e+00 7.967777464169166768e-01 2.613111359630774233e-01
1.767691764211438477e+00 9.937176370478384868e+00 3.723062990411677653e+00 2.717684043376325409e+00 8.027581379219741464e-01 2.535791795894231648e-01
1.733689502316700937e+00 1.002650946668472720e+01 3.717038220300821649e+00 2.709937532966473661e+00 8.088454774335059883e-01 2.520004006333831925e-01
1.733689502316700937e+00 1.002650946668472720e+01 3.717038220300821649e+00 2.709937532966473661e+00 8.088454774335059883e-01 2.520004006333831925e-01
1.815087011365682512e+00 9.957176565433567106e+00 3.748457865634115649e+00 2.734507344364535797e+00 8.190881031551516811e-01 2.442396274487069197e-01
1.770061977726322677e+00 9.927210704652164708e+00 3.713502437756873942e+00 2.723822300488574211e+00 8.139981710615706856e-01 2.349763007603952181e-01
1.770061977726322677e+00 9.927210704652164708e+00 3.713502437756873942e+00 2.723822300488574211e+00 8.139981710615706856e-01 2.349763007603952181e-01
1.770061977726322677e+00 9.927210704652164708e+00 3.713502437756873942e+00 2.723822300488574211e+00 8.139981710615706856e-01 2.349763007603952181e-01
1.869752925423090018e+00 9.986197042735208029e+00 3.739222255582654864e+00 2.775757362800918671e+00 8.042729960193126804e-01 2.331642649089589181e-01
1.882234921314231757e+00 9.980206441121406868e+00 3.817557489152064498e+00 2.778845448923051187e+00 8.033830379389298448e-01 2.252027023677551365e-01
1.869856837316100862e+00 9.913035973746112006e+00 3.884217001932505742e+00 2.678092851119219020e+00 8.162913779746580056e-01 2.245551160912982458e-01
1.843177949760662182e+00 9.966581307078007157e+00 3.887794377134096813e+00 2.683535302480409168e+00 8.347414708906767400e-01 2.213047295812833326e-01
1.843177949760662182e+00 9.966581307078007157e+00 3.887794377134096813e+00 2.683535302480409168e+00 8.347414708906767400e-01 2.213047295812833326e-01
1.843177949760662182e+00 9.966581307078007157e+00 3.887794377134096813e+00 2.683535302480409168e+00 8.347414708906767400e-01 2.213047295812833326e-01
1.843177949760662182e+00 9.966581307078007157e+00 3.887794377134096813e+00 2.683535302480409168e+00 8.347414708906767400e-01 2.213047295812833326e-01
1.763925013129469699e+00 9.907311511153599426e+00 3.892305317712841273e+00 2.684225590794137695e+00 8.448440055928357895e-01 2.260297984206426358e-01
1.763925013129469699e+00 9.907311511153599426e+00 3.892305317712841273e+00 2.684225590794137695e+00 8.448440055928357895e-01 2.260297984206426358e-01
1.763925013129469699e+00 9.907311511153599426e+00 3.892305317712841273e+00 2.684225590794137695e+00 8.448440055928357895e-01 2.260297984206426358e-01
1.743648937561606882e+00 9.901631606876557967e+00 3.997349161993817290e+00 2.583514099799653074e+00 8.313033979376818206e-01 2.156419611323157903e-01
1.727913395212927528e+00 9.865103451344506169e+00 3.975185109790845495e+00 2.674066855430459633e+00 8.337946365789117298e-01 2.164435377429134721e-01
1.736623766351360620e+00 9.923816812318206004e+00 3.901962465845287387e+00 2.669874434230923743e+00 8.272024677820561944e-01 2.016568702000492153e-01
1.716585044483849076e+00 9.858933216172124148e+00 3.902030686677977034e+00 2.639622991505051974e+00 8.556555599079543883e-01 2.054810468786583688e-01
1.760104313274686305e+00 9.880168860696340261e+00 3.904997748048535389e+00 2.696410797355826450e+00 8.396025326459921612e-01 2.206905730518071984e-01
1.732540240544481636e+00 9.856896879427301528e+00 3.900855495537409290e+00 2.725973664557883147e+00 8.351560214946297522e-01 2.096703353768707423e-01
1.764444868234847474e+00 9.867774825025451335e+00 3.919007841654144286e+00 2.711151116144053130e+00 8.270890082255795139e-01 1.970264881171123195e-01
1.764444868234847474e+00 9.867774825025451335e+00 3.919007841654144286e+00 2.711151116144053130e+00 8.270890082255795139e-01 1.970264881171123195e-01
1.716932671092128437e+00 9.930919352496900387e+00 3.917646728674989198e+00 2.678437100749410327e+00 8.201911174398233140e-01 1.985532077184597732e-01
1.716932671092128437e+00 9.930919352496900387e+00 3.917646728674989198e+00 2.678437100749410327e+00 8.201911174398233140e-01 1.985532077184597732e-01
1.743629322257249870e+00 9.879414195221867701e+00 3.878925279504736423e+00 2.646480701079627629e+00 8.210558783698946872e-01 1.972218026673262237e-01
1.705047780165522830e+00 9.797578208454693183e+00 3.992741497746140400e+00 2.642083621439721419e+00 8.286946245210640161e-01 1.925996962435311544e-01
1.705047780165522830e+00 9.797578208454693183e+00 3.992741497746140400e+00 2.642083621439721419e+00 8.286946245210640161e-01 1.925996962435311544e-01
1.705047780165522830e+00 9.797578208454693183e+00 3.992741497746140400e+00 2.642083621439721419e+00 8.286946245210640161e-01 1.925996962435311544e-01
1.620519843220923795e+00 9.797035734618580349e+00 3.978783642373378893e+00 2.672466078483384688e+00 8.466426950458845191e-01 1.939239432185679290e-01
1.625287035678575798e+00 9.760738131247959970e+00 3.989652033232453210e+00 2.719050360697083946e+00 8.534280167361996128e-01 1.781104844053659209e-01
1.620839922481293049e+00 9.879566524301706565e+00 4.038040048348175759e+00 2.684328347542133564e+00 8.602076098252545711e-01 1.785856579000979771e-01
1.685662718871076216e+00 9.895577185179218915e+00 4.076849371237153186e+00 2.667608455385436894e+00 8.531910444059287446e-01 2.000667499679865402e-01
1.631679958530320995e+00 9.856167764601265091e+00 4.007067706456827416e+00 2.675515811833814261e+00 8.547125009304475940e-01 1.883802107131988257e-01
1.584775528953598522e+00 9.857790833105941175e+00 3.932743907620348534e+00 2.630697314175175716e+00 8.491402200278626022e-01 2.021232761509778042e-01
1.584775528953598522e+00 9.857790833105941175e+00 3.932743907620348534e+00 2.630697314175175716e+00 8.491402200278626022e-01 2.021232761509778042e-01
1.529162592700770151e+00 9.944616044330789606e+00 3.929943018401454324e+00 2.664581698992860570e+00 8.576096947105936730e-01 1.995727905019284987e-01
1.484850358426713868e+00 9.888243922735931335e+00 3.868236040913773710e+00 2.665896456419692750e+00 8.591572917636622897e-01 1.912303360926268236e-01
1.553831563359831192e+00 9.846316770045255851e+00 3.852712686654153895e+00 2.596356262472924392e+00 8.774563679879847644e-01 1.820525976213266395e-01
1.553831563359831192e+00 9.846316770045255851e+00 3.852712686654153895e+00 2.596356262472924392e+00 8.774563679879847644e-01 1.820525976213266395e-01
1.544908832846145996e+00 9.820226466517661734e+00 3.830982491956821168e+00 2.561265637882413237e+00 8.847126393403392797e-01 1.884050567792306119e-01
1.544319242735561870e+00 9.898721493750102240e+00 3.877259441466676115e+00 2.529354322710904324e+00 8.921249494168974614e-01 1.699258452542257991e-01
1.544319242735561870e+00 9.898721493750102240e+00 3.877259441466676115e+00 2.529354322710904324e+00 8.921249494168974614e-01 1.699258452542257991e-01
1.626670861588076944e+00 9.961052415449275443e+00 3.852920510977046131e+00 2.499203414657829025e+00 8.914633223232586445e-01 1.724767915259496631e-01
1.626670861588076944e+00 9.961052415449275443e+00 3.852920510977046131e+00 2.499203414657829025e+00 8.914633223232586445e-01 1.724767915259496631e-01
1.626670861588076944e+00 9.961052415449275443e+00 3.852920510977046131e+00 2.499203414657829025e+00 8.914633223232586445e-01 1.724767915259496631e-01
1.626670861588076944e+00 9.961052415449275443e+00 3.852920510977046131e+00 2.499203414657829025e+00 8.914633223232586445e-01 1.724767915259496631e-01
1.601858310636364191e+00 9.995362741330007239e+00 3.863230622432689110e+00 2.516593170993901118e+00 9.050247204342082297e-01 1.625773823304960397e-01
1.601858310636364191e+00 9.995362741330007239e+00 3.863230622432689110e+00 2.516593170993901118e+00 9.050247204342082297e-01 1.625773823304960397e-01
1.612341837377945453e+00 1.008898089974569601e+01 3.920508990271343919e+00 2.454151011139577232e+00 9.064271692505158073e-01 1.658627028231943468e-01
1.612341837377945453e+00 1.008898089974569601e+01 3.920508990271343919e+00 2.454151011139577232e+00 9.064271692505158073e-01 1.658627028231943468e-01
1.612341837377945453e+00 1.008898089974569601e+01 3.920508990271343919e+00 2.454151011139577232e+00 9.064271692505158073e-01 1.658627028231943468e-01
1.636178070974985355e+00 1.004760308245986877e+01 3.897019733653643403e+00 2.480488553039973176e+00 8.956842067553828501e-01 1.649307843668380014e-01
1.572926566913864344e+00 1.001989255401679202e+01 3.891409260460548580e+00 2.435359388832816219e+00 9.005766231134585409e-01 1.657480253175830920e-01
1.637964247326616940e+00 1.006147484219440713e+01 3.890226839049341745e+00 2.455258041846620554e+00 9.042737607198206851e-01 1.626654722256081209e-01
1.645498467236976126e+00 1.000660793233419987e+01 3.843124400751911196e+00 2.363418330346520602e+00 8.889407572669414392e-01 1.668713679607526923e-01
1.645498467236976126e+00 1.000660793233419987e+01 3.843124400751911196e+00 2.363418330346520602e+00 8.889407572669414392e-01 1.668713679607526923e-01
1.645498467236976126e+00 1.000660793233419987e+01 3.843124400751911196e+00 2.363418330346520602e+00 8.889407572669414392e-01 1.668713679607526923e-01
1.622747645666526184e+00 1.007867219224597299e+01 3.847671862454676184e+00 2.389801116900253763e+00 8.986823381689177381e-01 1.748855323776834503e-01
1.661167861999220063e+00 1.010915941100998516e+01 3.807481190028528584e+00 2.400581408634788527e+00 8.897797897145880430e-01 1.920154022722704856e-01
1.646230691139712432e+00 1.013902015627886222e+01 3.703073074320469615e+00 2.430127606488384107e+00 8.945130006735783068e-01 1.894192283419535716e-01
1.641610628352849988e+00 1.015547721725572927e+01 3.588595939323308226e+00 2.410971380046201151e+00 9.055411875971235425e-01 1.904852810430855969e-01
1.641610628352849988e+00 1.015547721725572927e+01 3.588595939323308226e+00 2.410971380046201151e+00 9.055411875971235425e-01 1.904852810430855969e-01
1.629351570772803459e+00 1.020940537214982591e+01 3.656477418526316914e+00 2.420670190612022932e+00 9.023414816009225348e-01 1.805224196584657992e-01
1.629911657285049387e+00 1.021146482221656626e+01 3.553768461319736893e+00 2.478247934130054286e+00 9.012792980679726895e-01 1.910206393086711918e-01
1.629911657285049387e+00 1.021146482221656626e+01 3.553768461319736893e+00 2.478247934130054286e+00 9.012792980679726895e-01 1.910206393086711918e-01
1.629911657285049387e+00 1.021146482221656626e+01 3.553768461319736893e+00 2.478247934130054286e+00 9.012792980679726895e-01 1.910206393086711918e-01
1.629911657285049387e+00 1.021146482221656626e+01 3.553768461319736893e+00 2.478247934130054286e+00 9.012792980679726895e-01 1.910206393086711918e-01
1.572462762508658685e+00 1.018870730373099320e+01 3.571858664546493589e+00 2.428211686800600511e+00 8.912782512157639836e-01 1.864559090873093294e-01
1.572462762508658685e+00 1.018870730373099320e+01 3.571858664546493589e+00 2.428211686800600511e+00 8.912782512157639836e-01 1.864559090873093294e-01
1.601624674031110418e+00 1.022316488677806134e+01 3.629432649862509574e+00 2.354989855577765745e+00 8.839327170002195810e-01 1.848915611001404058e-01
1.601624674031110418e+00 1.022316488677806134e+01 3.629432649862509574e+00 2.354989855577765745e+00 8.839327170002195810e-01 1.848915611001404058e-01
1.601624674031110418e+00 1.022316488677806134e+01 3.629432649862509574e+00 2.354989855577765745e+00 8.839327170002195810e-01 1.848915611001404058e-01
1.580316097750630977e+00 1.028982164779119124e+01 3.635495322305622334e+00 2.363811856588995397e+00 8.785121093346641707e-01 1.819037785269668195e-01
1.470591631718868530e+00 1.028181881178979040e+01 3.648122072376515312e+00 2.408868267744908476e+00 8.711148041404281894e-01 1.851946063876487303e-01
1.401279942684498847e+00 1.035222607038909004e+01 3.632452459235345987e+00 2.464371677316087528e+00 8.686787765752600476e-01 1.853514451547717823e-01
1.401279942684498847e+00 1.035222607038909004e+01 3.632452459235345987e+00 2.464371677316087528e+00 8.686787765752600476e-01 1.853514451547717823e-01
1.401279942684498847e+00 1.035222607038909004e+01 3.632452459235345987e+00 2.464371677316087528e+00 8.686787765752600476e-01 1.853514451547717823e-01
1.458557741435479782e+00 1.039996118216556376e+01 3.680512229485593867e+00 2.371447466744240007e+00 8.704888094290147427e-01 1.860331997687232619e-01
1.573851439825504128e+00 1.034928712346895630e+01 3.722342599250984652e+00 2.358975553066203101e+00 8.743412425599037530e-01 1.773057735029369697e-01
1.573851439825504128e+00 1.034928712346895630e+01 3.722342599250984652e+00 2.358975553066203101e+00 8.743412425599037530e-01 1.773057735029369697e-01
1.573851439825504128e+00 1.034928712346895630e+01 3.722342599250984652e+00 2.358975553066203101e+00 8.743412425599037530e-01 1.773057735029369697e-01
1.586496786420388716e+00 1.031708024416375302e+01 3.811695145514145899e+00 2.374515663045254410e+00 8.882713468148872860e-01 1.674151634894183727e-01
1.591803981223662179e+00 1.030528557796876221e+01 3.816475334918106643e+00 2.351021325175503662e+00 8.761737071710530289e-01 1.627871767195385733e-01
1.643359462184752040e+00 1.030455163505678406e+01 3.775986733057091094e+00 2.350174671898940915e+00 8.746323780284005478e-01 1.677950740563208809e-01
1.571534834424051397e+00 1.039159486415175238e+01 3.747342246831553592e+00 2.336159225363495739e+00 8.701555642053250272e-01 1.662681443429147032e-01
1.571534834424051397e+00 1.039159486415175238e+01 3.747342246831553592e+00 2.336159225363495739e+00 8.701555642053250272e-01 1.662681443429147032e-01
1.455530311426293411e+00 1.041067823110434354e+01 3.741507095221767720e+00 2.270742467048143975e+00 8.793462262729442314e-01 1.852497306935034227e-01
1.455530311426293411e+00 1.041067823110434354e+01 3.741507095221767720e+00 2.270742467048143975e+00 8.793462262729442314e-01 1.852497306935034227e-01
1.456208793650385802e+00 1.033927530234346115e+01 3.756669314672332671e+00 2.337854430666320482e+00 8.700686594488873382e-01 1.854299140573880400e-01
1.508265759960365715e+00 1.053170166670209973e+01 3.811925901764914304e+00 2.369813902339158229e+00 8.740857607809032759e-01 1.885853778761763522e-01
1.508265759960365715e+00 1.053170166670209973e+01 3.811925901764914304e+00 2.369813902339158229e+00 8.740857607809032759e-01 1.885853778761763522e-01
1.474037569821333049e+00 1.051548437050392337e+01 3.771233553657701965e+00 2.336849867775427025e+00 8.612208507696740289e-01 1.905818378143418479e-01
1.403455234294206599e+00 1.041875409602076807e+01 3.795612339952908698e+00 2.337296542850245462e+00 8.667111202356678756e-01 2.092713268316191699e-01
1.403455234294206599e+00 1.041875409602076807e+01 3.795612339952908698e+00 2.337296542850245462e+00 8.667111202356678756e-01 2.092713268316191699e-01
1.403455234294206599e+00 1.041875409602076807e+01 3.795612339952908698e+00 2.337296542850245462e+00 8.667111202356678756e-01 2.092713268316191699e-01
1.403455234294206599e+00 1.041875409602076807e+01 3.795612339952908698e+00 2.337296542850245462e+00 8.667111202356678756e-01 2.092713268316191699e-01
1.403563353159119398e+00 1.035729924125545764e+01 3.809497869570074968e+00 2.451479536699684658e+00 8.710060555126196702e-01 2.069907164131485344e-01
1.368777889829003502e+00 1.026845280479551725e+01 3.831330596720010195e+00 2.414831640587466133e+00 8.663081610270275679e-01 2.032688188224310577e-01
1.368777889829003502e+00 1.026845280479551725e+01 3.831330596720010195e+00 2.414831640587466133e+00 8.663081610270275679e-01 2.032688188224310577e-01
1.368777889829003502e+00 1.026845280479551725e+01 3.831330596720010195e+00 2.414831640587466133e+00 8.663081610270275679e-01 2.032688188224310577e-01
1.341925212789350841e+00 1.029163638020037830e+01 3.846102126171062174e+00 2.408479054301674083e+00 8.599211044797497872e-01 2.119975413388492103e-01
1.356614657174640692e+00 1.022941512337974856e+01 3.855891808806139132e+00 2.416362377238729486e+00 8.531012116475477081e-01 2.111525599756845228e-01
1.356614657174640692e+00 1.022941512337974856e+01 3.855891808806139132e+00 2.416362377238729486e+00 8.531012116475477081e-01 2.111525599756845228e-01
1.351510639779766265e+00 1.017972718714019997e+01 3.802131421323291516e+00 2.412732524605030182e+00 8.415208533577320793e-01 2.266851738076900991e-01
1.388067830893395804e+00 1.017551856085039574e+01 3.744680367243496288e+00 2.362697986499032066e+00 8.091913880095239486e-01 2.215295050762877416e-01
1.388067830893395804e+00 1.017551856085039574e+01 3.744680367243496288e+00 2.362697986499032066e+00 8.091913880095239486e-01 2.215295050762877416e-01
1.388067830893395804e+00 1.017551856085039574e+01 3.744680367243496288e+00 2.362697986499032066e+00 8.091913880095239486e-01 2.215295050762877416e-01
1.450054027498208775e+00 1.020306347873263952e+01 3.748349759212571186e+00 2.329842986116694714e+00 8.189725251756897473e-01 2.302125056360324884e-01
1.377740534871707112e+00 1.021429381008911186e+01 3.659849486135235086e+00 2.287939581061528393e+00 8.088794862917659811e-01 2.415223489029291737e-01
1.480268463646446708e+00 1.026878240703527290e+01 3.719922160835058556e+00 2.357917551768614395e+00 8.127677532157832063e-01 2.259651690594329243e-01
1.480268463646446708e+00 1.026878240703527290e+01 3.719922160835058556e+00 2.357917551768614395e+00 8.127677532157832063e-01 2.259651690594329243e-01
1.413650872330213248e+00 1.030052723201652576e+01 3.612086203190031597e+00 2.375485312430305029e+00 8.254068206806364216e-01 2.143776215983938527e-01
1.413650872330213248e+00 1.030052723201652576e+01 3.612086203190031597e+00 2.375485312430305029e+00 8.254068206806364216e-01 2.143776215983938527e-01
1.413650872330213248e+00 1.030052723201652576e+01 3.612086203190031597e+00 2.375485312430305029e+00 8.254068206806364216e-01 2.143776215983938527e-01
1.331245306568774822e+00 1.031181218549121326e+01 3.627532320026845891e+00 2.427841449292783338e+00 8.190238915361865990e-01 2.091885200008201662e-01
1.334058283264199840e+00 1.026241023572361755e+01 3.612371200939300309e+00 2.459054659892592642e+00 8.067131670008941269e-01 2.199290393474479521e-01
1.400211489674916043e+00 1.018776736360392654e+01 3.612517149892840784e+00 2.499794979484063706e+00 8.181347267734810913e-01 2.240504112935066128e-01
1.424911935052625367e+00 1.019161391426594498e+01 3.672002536840849984e+00 2.520246066417730191e+00 8.022352969302258829e-01 2.204912788123074008e-01
1.484707826592294833e+00 1.013855556270273084e+01 3.685398296575766341e+00 2.468828149286212081e+00 7.966567735830006880e-01 2.285436435216959272e-01
1.443008384628507113e+00 1.010424531564671469e+01 3.647442122825578004e+00 2.456129283848831335e+00 8.066312853591641741e-01 2.378536233617211393e-01
1.423221820305929697e+00 1.003999993193060014e+01 3.606253524109908071e+00 2.410250175963605468e+00 8.138503751727519386e-01 2.310298301065066839e-01
1.389353068282314529e+00 1.012785686126669304e+01 3.514992690828393496e+00 2.422425791616695356e+00 8.168585535223820138e-01 2.283548126659426802e-01
1.400965477438204099e+00 1.015129139628214361e+01 3.521676422229997439e+00 2.448394621643073865e+00 8.216058158837374892e-01 2.255409301933025135e-01
1.400965477438204099e+00 1.015129139628214361e+01 3.521676422229997439e+00 2.448394621643073865e+00 8.216058158837374892e-01 2.255409301933025135e-01
1.400965477438204099e+00 1.015129139628214361e+01 3.521676422229997439e+00 2.448394621643073865e+00 8.216058158837374892e-01 2.255409301933025135e-01
1.400965477438204099e+00 1.015129139628214361e+01 3.521676422229997439e+00 2.448394621643073865e+00 8.216058158837374892e-01 2.255409301933025135e-01
1.424561959382828480e+00 1.021373770064061581e+01 3.448761107064044484e+00 2.462560560767807605e+00 8.242246551511366315e-01 2.212354000444480828e-01
1.409421828206266492e+00 1.019750618269326381e+01 3.518598017322643656e+00 2.414248840374043859e+00 8.227907979519136772e-01 2.276360166839713206e-01
1.409421828206266492e+00 1.019750618269326381e+01 3.518598017322643656e+00 2.414248840374043859e+00 8.227907979519136772e-01 2.276360166839713206e-01
1.394580896120320546e+00 1.015188758047851714e+01 3.487270278609903240e+00 2.377729876822519905e+00 8.300796328144600666e-01 2.130942274041602857e-01
