# 
# B-A
# SNeIa Union 2.1 data
# 
# bounds:
# [(-1.5, 1.5), (-2, 2), (0.1, 1), (0.1, 1)]
# 
# 
# Results are displayed in the following order: 
# w(z=0), chi2min, chi2reduced,
# w_params, h, OmegaM, aic, bic, mparams
# 
-1.085890661707556326e+00
5.421333667070553020e+02
9.803496685480204142e-01
-1.085890661707556326e+00
-2.000000000000000000e+00
6.995119073808517829e-01
3.563683648580401320e-01
5.501333667070553020e+02
5.674236276667644461e+02
4.000000000000000000e+00
