# 
# CPL
# 
# SNeIa JLA binned data
# 
# bounds:
# [(-1.5, 1.5), (-2, 2), (0.1, 1), (0.1, 1)]
# 
# 
# Results are displayed in the following order: 
# w(z=0), chi2min, chi2reduced,
# w_params, h, OmegaM, aic, bic, mparams
# 
-7.450033315448667537e-01
2.932983189479012509e+01
1.086290070177412082e+00
-7.450033315448667537e-01
-4.368985815136748607e-02
7.010488260395802973e-01
5.487518753374630298e-02
3.732983189479012509e+01
4.306578071273071373e+01
4.000000000000000000e+00
