# 
#          w(z) = -1 - A*exp(-z)*(z**n- z - C)
#             * * * New lims for params * * *
# 
#         Results are displayed in the following order: 
#         w(z=0), chi2min, chi2reduced,
#         w_params, h, omegabh2, omegach2, OmegaM,
#         aic, bic, m_params
#         
#         bounds = [(A),       (n),    (C),     (h), (omegabh2_fixed), (omegach2)]
#         bounds = [(-50, 50), (0, 1), (-5, 5), (0.5, 0.8), (0.001, 0.2)]
#         
#         
-1.908475410841265596e+00
9.558466728429779735e+00
4.779233364214889868e+00
-1.385655379611866467e+00
5.298770038081956901e-02
6.556286824331003515e-01
7.697975989693595089e-01
2.222000000000000017e-02
1.899693030374768610e-01
3.580720164483067736e-01
1.955846672842977796e+01
1.928801747370634700e+01
5.000000000000000000e+00
