# 
#          w(z) = -1 - A*exp(-z)*(z**n- z - C)
#             * * * New lims for params * * *
#         
#         QUINTESSENCE LIKE : n = 0
#           
#         Results are displayed in the following order: 
#         w(z=0), chi2min, chi2reduced,
#         w_params, h, omegabh2, omegach2, OmegaM,
#         aic, bic, m_params
# 
#         bounds = [(A),       (n),    (C),     (h), (omegabh2_fixed), (omegach2)]
#         bounds = [(-50, 50), (0, 1), (-5, 5), (0.5, 0.8), (0.005, 0.045), (0.001, 0.2)]
# 
#         
-7.535822028985572629e-01
1.038174139211588454e+01
2.076348278423176819e+00
-3.552114404936523862e-01
0.000000000000000000e+00
3.062785456487959745e-01
6.623710312646878817e-01
2.265715809015994217e-02
1.166836622704561094e-01
3.175964960683151372e-01
2.038174139211588454e+01
2.189466685708611493e+01
5.000000000000000000e+00
